^D:\DJAYE\ONEDRIVE\CAMPUS\ODU\FALL2019\ECE406\ASSIGNMENTS\HW3\PROJECT\PROJECT\SRC\HELLO.C
/c /I.\INCLUDE\ /ZI /JMC /nologo /W3 /WX- /diagnostics:classic /sdl /Od /Oy- /D _MBCS /Gm- /EHsc /RTC1 /MDd /GS /fp:precise /Zc:wchar_t /Zc:forScope /Zc:inline /Fo"DEBUG\\" /Fd"DEBUG\VC141.PDB" /Gd /TC /analyze- /FC D:\DJAYE\ONEDRIVE\CAMPUS\ODU\FALL2019\ECE406\ASSIGNMENTS\HW3\PROJECT\PROJECT\SRC\HELLO.C
^D:\DJAYE\ONEDRIVE\CAMPUS\ODU\FALL2019\ECE406\ASSIGNMENTS\HW4\PROJECT\PROJECT\SRC\HELLO.C
/c /I.\INCLUDE\ /ZI /JMC /nologo /W3 /WX- /diagnostics:classic /sdl /Od /Oy- /D _MBCS /Gm- /EHsc /RTC1 /MDd /GS /fp:precise /Zc:wchar_t /Zc:forScope /Zc:inline /Fo"DEBUG\\" /Fd"DEBUG\VC141.PDB" /Gd /TC /analyze- /FC D:\DJAYE\ONEDRIVE\CAMPUS\ODU\FALL2019\ECE406\ASSIGNMENTS\HW4\PROJECT\PROJECT\SRC\HELLO.C
^D:\DJAYE\ONEDRIVE\CAMPUS\ODU\FALL2019\ECE406\ASSIGNMENTS\HW4\PROJECT\PROJECT\SRC\SPIN.C
/c /I.\INCLUDE\ /ZI /JMC /nologo /W3 /WX- /diagnostics:classic /sdl /Od /Oy- /D _MBCS /Gm- /EHsc /RTC1 /MDd /GS /fp:precise /Zc:wchar_t /Zc:forScope /Zc:inline /Fo"DEBUG\\" /Fd"DEBUG\VC141.PDB" /Gd /TC /analyze- /FC D:\DJAYE\ONEDRIVE\CAMPUS\ODU\FALL2019\ECE406\ASSIGNMENTS\HW4\PROJECT\PROJECT\SRC\SPIN.C
^D:\DJAYE\ONEDRIVE\CAMPUS\ODU\FALL2019\ECE406\ASSIGNMENTS\HW4\RUBBERBANDING\PROJECT\SRC\SPIN.C
/c /I.\INCLUDE\ /ZI /JMC /nologo /W3 /WX- /diagnostics:classic /sdl /Od /Oy- /D _MBCS /Gm- /EHsc /RTC1 /MDd /GS /fp:precise /Zc:wchar_t /Zc:forScope /Zc:inline /Fo"DEBUG\\" /Fd"DEBUG\VC141.PDB" /Gd /TC /analyze- /FC D:\DJAYE\ONEDRIVE\CAMPUS\ODU\FALL2019\ECE406\ASSIGNMENTS\HW4\RUBBERBANDING\PROJECT\SRC\SPIN.C
^D:\DJAYE\ONEDRIVE\CAMPUS\ODU\FALL2019\ECE406\ASSIGNMENTS\HW4\RUBBERBANDING\PROJECT\SRC\RUBBERBAND_RECTANGLE.C
/c /I.\INCLUDE\ /ZI /JMC /nologo /W3 /WX- /diagnostics:classic /sdl /Od /Oy- /D _MBCS /Gm- /EHsc /RTC1 /MDd /GS /fp:precise /Zc:wchar_t /Zc:forScope /Zc:inline /Fo"DEBUG\\" /Fd"DEBUG\VC141.PDB" /Gd /TC /analyze- /FC D:\DJAYE\ONEDRIVE\CAMPUS\ODU\FALL2019\ECE406\ASSIGNMENTS\HW4\RUBBERBANDING\PROJECT\SRC\RUBBERBAND_RECTANGLE.C
