^D:\DJAYE\ONEDRIVE\CAMPUS\ODU\FALL2019\ECE406\ASSIGNMENTS\HW3\PROJECT\PROJECT\DEBUG\HELLO.OBJ
D:\DJAYE\ONEDRIVE\CAMPUS\ODU\FALL2019\ECE406\ASSIGNMENTS\HW3\PROJECT\PROJECT\BIN\PROJECT.EXE
D:\DJAYE\ONEDRIVE\CAMPUS\ODU\FALL2019\ECE406\ASSIGNMENTS\HW3\PROJECT\PROJECT\BIN\PROJECT.ILK
D:\DJAYE\ONEDRIVE\CAMPUS\ODU\FALL2019\ECE406\ASSIGNMENTS\HW3\PROJECT\PROJECT\BIN\PROJECT.PDB
^D:\DJAYE\ONEDRIVE\CAMPUS\ODU\FALL2019\ECE406\ASSIGNMENTS\HW4\RUBBERBANDING\PROJECT\DEBUG\RUBBERBAND_RECTANGLE.OBJ
D:\DJAYE\ONEDRIVE\CAMPUS\ODU\FALL2019\ECE406\ASSIGNMENTS\HW4\RUBBERBANDING\PROJECT\BIN\PROJECT.EXE
D:\DJAYE\ONEDRIVE\CAMPUS\ODU\FALL2019\ECE406\ASSIGNMENTS\HW4\RUBBERBANDING\PROJECT\BIN\PROJECT.ILK
D:\DJAYE\ONEDRIVE\CAMPUS\ODU\FALL2019\ECE406\ASSIGNMENTS\HW4\RUBBERBANDING\PROJECT\BIN\PROJECT.PDB
